{
    "status" : 1,
    "data" : [
        {
            "id" : 1,
            "photo_url" :  "https://thegioibepapi.eg4life.com/uploads/banner.jpg",
            "photo_url_mobile" :  "https://thegioibepapi.eg4life.com/uploads/banner.jpg",
            "link" : {
                "type" : "video",
                "object_id" : "5",
                "url" : null
            }
        },

        {
            "id" : 2,
            "photo_url" :  "https://thegioibepapi.eg4life.com/uploads/banner.jpg",
            "photo_url_mobile" :  "https://thegioibepapi.eg4life.com/uploads/banner.jpg",
            "link" : {
                "type" : null,
                "object_id" : null,
                "url" : "https://thegioibep.eg4life.com/#"
            }
        }
       
    ]
}